﻿{
  "dependencies": {
    "EntityFramework.Commands": "7.0.0-rc1-final",
    "EntityFramework.SQLite": "7.0.0-rc1-final",
    "Microsoft.ApplicationInsights": "1.0.0",
    "Microsoft.ApplicationInsights.PersistenceChannel": "1.0.0",
    "Microsoft.ApplicationInsights.WindowsApps": "1.0.0",
    "Microsoft.NETCore.UniversalWindowsPlatform": "5.0.0",
    "SQLite.Net-PCL": "3.1.1",
    "UniversalBeaconLibrary": "1.8.1"
  },
  "frameworks": {
    "uap10.0": {}
  },
  "runtimes": {
    "win10-arm": {},
    "win10-arm-aot": {},
    "win10-x86": {},
    "win10-x86-aot": {},
    "win10-x64": {},
    "win10-x64-aot": {}
  }
}